<?xml version="1.0" encoding="utf-8"?>
<!-- Svg Vector Icons : http://www.onlinewebfonts.com/icon -->
<!DOCTYPE svg PUBLIC "-//W3C//DTD SVG 1.1//EN" "http://www.w3.org/Graphics/SVG/1.1/DTD/svg11.dtd">
<svg version="1.1" xmlns="http://www.w3.org/2000/svg" xmlns:xlink="http://www.w3.org/1999/xlink" x="0px" y="0px" viewBox="0 0 1000 1000" enable-background="new 0 0 1000 1000" xml:space="preserve">
<metadata> Svg Vector Icons : http://www.onlinewebfonts.com/icon </metadata>
<g><g><g id="Shape_11"><g><path fill="#EB4F38" d="M865.1,321.8c0.3-3.5,0.4-7,0.4-10.5c0-85-69.2-154.2-154.3-154.2c-56.9,0-109.4,32.1-136,81.6c-29.8-15.9-62.9-24.2-96.9-24.2c-113.9,0-206.5,92.6-206.5,206.3c0,4.9,0.4,9.7,0.7,14.6c-18.2-5.1-37-8-56.2-8C102.6,427.5,10,520.3,10,634.1c0,112.2,91.3,205.2,203.8,206.8l404.7,2c0,0,0,0,0,0c1.5,0,3.1-1.3,4.5-1.7c61.9-17.9,105.1-82.4,105.1-155.4c0-20-4-39.2-11.1-56.8l163.4,1.3c0,0,0,0,0,0c1.5,0,3.1-1.3,4.6-1.7C946.8,610.6,990,546.1,990,473.1C990,399.1,936.4,335.6,865.1,321.8z M616.1,808L214,807.1c-94.4-1.3-171.3-79.1-171.3-173.5c0-95.7,77.9-173.6,173.7-173.6c33.9,0,66.8,9.8,95.2,28.5c4.1,2.7,9.3,3.4,14,1.9c4.7-1.5,8.5-5.1,10.3-9.7c17.9-46.7,63.5-78.1,113.4-78.1c67,0,121.5,54.5,121.5,121.5c0,6.9-0.7,13.9-2,21.5c-0.8,4.5,0.3,9.2,3.1,12.9c2.8,3.7,7.1,6,11.7,6.3c37.9,3,70.8,23.8,90.9,53.5c0.8,2.3,2.1,4.4,3.8,6.1c10.7,18.1,17,39.1,17,61.4C695.4,743.4,662.9,793.3,616.1,808z M878,596.6l-178.1,0.8c-22.5-31.9-56.8-55.2-96.7-63c0.3-3.5,0.4-7,0.4-10.5c0-85-69.2-154.2-154.3-154.2c-56.9,0-109.4,32.2-136,81.7c-2-1.1-4.2-1.8-6.3-2.9c-1.5-9.2-2.4-18.5-2.4-27.8c0-95.7,77.9-173.6,173.7-173.6c33.9,0,66.8,9.8,95.2,28.5c4.1,2.7,9.3,3.4,14,1.9c4.7-1.5,8.5-5.1,10.3-9.7c17.9-46.7,63.5-78.1,113.4-78.1c67,0,121.5,54.5,121.5,121.5c0,6.9-0.7,14-2,21.6c-0.8,4.5,0.3,9.3,3.1,13c2.8,3.7,7.1,6.1,11.7,6.5c62.6,5,111.7,58.5,111.7,121.3C957.3,531.3,924.8,581.9,878,596.6z"/></g></g></g><g></g><g></g><g></g><g></g><g></g><g></g><g></g><g></g><g></g><g></g><g></g><g></g><g></g><g></g><g></g></g>
</svg>
